\contentsline {section}{\numberline {1}Components}{2}{section.1}
\contentsline {section}{\numberline {2}Failsafes}{4}{section.2}
\contentsline {section}{\numberline {3}Operation}{4}{section.3}
\contentsline {section}{\numberline {4}Future Work}{6}{section.4}
\contentsline {section}{\numberline {5}Example Pin Manipulation Program}{6}{section.5}
\contentsline {section}{\numberline {6}Questions}{8}{section.6}
