# Fdb version 3
["pdflatex"] 1408629087 "HardwareDocumentation.tex" "HardwareDocumentation.pdf" "HardwareDocumentation" 1408629088
  "/usr/local/texlive/2013/texmf-dist/fonts/map/fontname/texfonts.map" 1272929888 3287 e6b82fe08f5336d4d5ebc73fb1152e87 ""
  "/usr/local/texlive/2013/texmf-dist/fonts/tfm/public/cm/cmbx10.tfm" 1136768653 1328 c834bbb027764024c09d3d2bf908b5f0 ""
  "/usr/local/texlive/2013/texmf-dist/fonts/tfm/public/cm/cmbx12.tfm" 1136768653 1324 c910af8c371558dc20f2d7822f66fe64 ""
  "/usr/local/texlive/2013/texmf-dist/fonts/tfm/public/cm/cmbx9.tfm" 1136768653 1328 5442e22a7072966dbaf88ca900acf3f0 ""
  "/usr/local/texlive/2013/texmf-dist/fonts/tfm/public/cm/cmitt10.tfm" 1136768653 768 2297ad2ac26f37e67f756dad27c77d68 ""
  "/usr/local/texlive/2013/texmf-dist/fonts/tfm/public/cm/cmmi12.tfm" 1136768653 1524 4414a8315f39513458b80dfc63bff03a ""
  "/usr/local/texlive/2013/texmf-dist/fonts/tfm/public/cm/cmmi6.tfm" 1136768653 1512 f21f83efb36853c0b70002322c1ab3ad ""
  "/usr/local/texlive/2013/texmf-dist/fonts/tfm/public/cm/cmmi8.tfm" 1136768653 1520 eccf95517727cb11801f4f1aee3a21b4 ""
  "/usr/local/texlive/2013/texmf-dist/fonts/tfm/public/cm/cmr12.tfm" 1136768653 1288 655e228510b4c2a1abe905c368440826 ""
  "/usr/local/texlive/2013/texmf-dist/fonts/tfm/public/cm/cmr17.tfm" 1136768653 1292 296a67155bdbfc32aa9c636f21e91433 ""
  "/usr/local/texlive/2013/texmf-dist/fonts/tfm/public/cm/cmr6.tfm" 1136768653 1300 b62933e007d01cfd073f79b963c01526 ""
  "/usr/local/texlive/2013/texmf-dist/fonts/tfm/public/cm/cmr8.tfm" 1136768653 1292 21c1c5bfeaebccffdb478fd231a0997d ""
  "/usr/local/texlive/2013/texmf-dist/fonts/tfm/public/cm/cmr9.tfm" 1136768653 1292 6b21b9c2c7bebb38aa2273f7ca0fb3af ""
  "/usr/local/texlive/2013/texmf-dist/fonts/tfm/public/cm/cmsy10.tfm" 1136768653 1124 6c73e740cf17375f03eec0ee63599741 ""
  "/usr/local/texlive/2013/texmf-dist/fonts/tfm/public/cm/cmsy6.tfm" 1136768653 1116 933a60c408fc0a863a92debe84b2d294 ""
  "/usr/local/texlive/2013/texmf-dist/fonts/tfm/public/cm/cmsy8.tfm" 1136768653 1120 8b7d695260f3cff42e636090a8002094 ""
  "/usr/local/texlive/2013/texmf-dist/fonts/tfm/public/cm/cmtt10.tfm" 1136768653 768 1321e9409b4137d6fb428ac9dc956269 ""
  "/usr/local/texlive/2013/texmf-dist/fonts/type1/public/amsfonts/cm/cmbx10.pfb" 1248133631 34811 78b52f49e893bcba91bd7581cdc144c0 ""
  "/usr/local/texlive/2013/texmf-dist/fonts/type1/public/amsfonts/cm/cmbx12.pfb" 1248133631 32080 340ef9bf63678554ee606688e7b5339d ""
  "/usr/local/texlive/2013/texmf-dist/fonts/type1/public/amsfonts/cm/cmbx9.pfb" 1248133631 32298 c6d25bb16d1eac01ebdc6d7084126a1e ""
  "/usr/local/texlive/2013/texmf-dist/fonts/type1/public/amsfonts/cm/cmitt10.pfb" 1248133631 26057 fad158094905eaf20f4ae3782af0c45c ""
  "/usr/local/texlive/2013/texmf-dist/fonts/type1/public/amsfonts/cm/cmr10.pfb" 1248133631 35752 024fb6c41858982481f6968b5fc26508 ""
  "/usr/local/texlive/2013/texmf-dist/fonts/type1/public/amsfonts/cm/cmr12.pfb" 1248133631 32722 d7379af29a190c3f453aba36302ff5a9 ""
  "/usr/local/texlive/2013/texmf-dist/fonts/type1/public/amsfonts/cm/cmr17.pfb" 1248133631 32362 179c33bbf43f19adbb3825bb4e36e57a ""
  "/usr/local/texlive/2013/texmf-dist/fonts/type1/public/amsfonts/cm/cmr9.pfb" 1248133631 33993 9b89b85fd2d9df0482bd47194d1d3bf3 ""
  "/usr/local/texlive/2013/texmf-dist/fonts/type1/public/amsfonts/cm/cmtt10.pfb" 1248133631 31099 c85edf1dd5b9e826d67c9c7293b6786c ""
  "/usr/local/texlive/2013/texmf-dist/tex/context/base/supp-pdf.mkii" 1337017135 71627 94eb9990bed73c364d7f53f960cc8c5b ""
  "/usr/local/texlive/2013/texmf-dist/tex/generic/ifxetex/ifxetex.sty" 1284331290 1458 43ab4710dc82f3edeabecd0d099626b2 ""
  "/usr/local/texlive/2013/texmf-dist/tex/generic/oberdiek/gettitlestring.sty" 1303254447 8237 52810bdb4db2270e717422560a104aea ""
  "/usr/local/texlive/2013/texmf-dist/tex/generic/oberdiek/hobsub-generic.sty" 1338332114 189108 8b3553a56c83ff61acecb36b75d817e2 ""
  "/usr/local/texlive/2013/texmf-dist/tex/generic/oberdiek/hobsub-hyperref.sty" 1338332114 70752 45fa392800e07da61fa13446ad46b34d ""
  "/usr/local/texlive/2013/texmf-dist/tex/generic/oberdiek/infwarerr.sty" 1335995445 8253 3bdedc8409aa5d290a2339be6f09af03 ""
  "/usr/local/texlive/2013/texmf-dist/tex/generic/oberdiek/ltxcmds.sty" 1335995445 18425 775b341047ce304520cc7c11ca41392e ""
  "/usr/local/texlive/2013/texmf-dist/tex/latex/base/article.cls" 1254151887 20571 b8bd218bf2e18b4f5817ee643cd9c515 ""
  "/usr/local/texlive/2013/texmf-dist/tex/latex/base/size10.clo" 1254151887 9042 248dfba326a1b8733d6bb8e0a3ac1e49 ""
  "/usr/local/texlive/2013/texmf-dist/tex/latex/float/float.sty" 1137110151 6749 16d2656a1984957e674b149555f1ea1d ""
  "/usr/local/texlive/2013/texmf-dist/tex/latex/graphics/color.sty" 1156702488 6406 6f55214ce374a5b186b8781f4796f1f9 ""
  "/usr/local/texlive/2013/texmf-dist/tex/latex/graphics/graphics.sty" 1254151804 14183 42a8fc761b806986eef292369afc2988 ""
  "/usr/local/texlive/2013/texmf-dist/tex/latex/graphics/graphicx.sty" 1156702488 7882 3bd78469d444e8d494e27cfd7ca92719 ""
  "/usr/local/texlive/2013/texmf-dist/tex/latex/graphics/keyval.sty" 1156702488 2266 7054435e4584a41cf53b0a7ca624d0cb ""
  "/usr/local/texlive/2013/texmf-dist/tex/latex/graphics/trig.sty" 1156702488 3153 c50e6bd54d2dd3933fc52bcf369bec4a ""
  "/usr/local/texlive/2013/texmf-dist/tex/latex/hyperref/hpdftex.def" 1352416072 51837 247bd8424b3835ef78c236dc1e0b4aef ""
  "/usr/local/texlive/2013/texmf-dist/tex/latex/hyperref/hyperref.sty" 1352416072 231792 5fc9dc7dd667e773a766ecc63bba7f4b ""
  "/usr/local/texlive/2013/texmf-dist/tex/latex/hyperref/nameref.sty" 1351899753 12847 25b617d63258c4f72870c883493a3cf8 ""
  "/usr/local/texlive/2013/texmf-dist/tex/latex/hyperref/pd1enc.def" 1352416072 14005 155ac8fad2e5dd7c2cdd130fabd96633 ""
  "/usr/local/texlive/2013/texmf-dist/tex/latex/latexconfig/color.cfg" 1254097189 802 7b8c8d72c24d795ed7720e4dfd29bff3 ""
  "/usr/local/texlive/2013/texmf-dist/tex/latex/latexconfig/epstopdf-sys.cfg" 1279039959 678 4792914a8f45be57bb98413425e4c7af ""
  "/usr/local/texlive/2013/texmf-dist/tex/latex/latexconfig/graphics.cfg" 1278958963 3563 d35e897cae3b8c6848f6677b73370b54 ""
  "/usr/local/texlive/2013/texmf-dist/tex/latex/latexconfig/hyperref.cfg" 1254097189 235 6031e5765137be07eed51a510b2b8fb7 ""
  "/usr/local/texlive/2013/texmf-dist/tex/latex/listings/listings.cfg" 1213130811 1745 ae6fbed3255376b850f8b4ef89faef50 ""
  "/usr/local/texlive/2013/texmf-dist/tex/latex/listings/listings.sty" 1213130811 80175 a550732aef92a278ec9bed572025bd8e ""
  "/usr/local/texlive/2013/texmf-dist/tex/latex/listings/lstlang1.sty" 1172701948 89800 23131e8521c9ca0a050cd6d5e609c6a0 ""
  "/usr/local/texlive/2013/texmf-dist/tex/latex/listings/lstmisc.sty" 1213130811 76974 d9d4762e984ff3346653b91fbcf676e9 ""
  "/usr/local/texlive/2013/texmf-dist/tex/latex/oberdiek/auxhook.sty" 1303254447 3834 707ef09f31d7d2ea47ba89974755dfe0 ""
  "/usr/local/texlive/2013/texmf-dist/tex/latex/oberdiek/epstopdf-base.sty" 1303254447 12029 04d7fdf76e0464c23b5aa3a727952d7c ""
  "/usr/local/texlive/2013/texmf-dist/tex/latex/oberdiek/grfext.sty" 1335995445 7075 bd0c34fbf1ae8fd1debd2a554e41b2d5 ""
  "/usr/local/texlive/2013/texmf-dist/tex/latex/oberdiek/kvoptions.sty" 1335995445 22417 c74ff4af6a1aa2b65d1924020edbbe11 ""
  "/usr/local/texlive/2013/texmf-dist/tex/latex/oberdiek/rerunfilecheck.sty" 1303254447 9581 1158efc648bc09d5064db5703c882159 ""
  "/usr/local/texlive/2013/texmf-dist/tex/latex/pdftex-def/pdftex.def" 1306616590 55368 3c8a0d99822330f2dfabc0dfb09ce897 ""
  "/usr/local/texlive/2013/texmf-dist/tex/latex/url/url.sty" 1264379145 21932 e3a9cf32ee9b853b42be14c2f25b873c ""
  "/usr/local/texlive/2013/texmf-dist/web2c/texmf.cnf" 1366045088 31707 0953c15448e216a6585e92ee639d2dc2 ""
  "/usr/local/texlive/2013/texmf-var/fonts/map/pdftex/updmap/pdftex.map" 1369923225 1072746 3ce1f23f203cb4a0015ca3c8411dee4a ""
  "/usr/local/texlive/2013/texmf-var/web2c/pdftex/pdflatex.fmt" 1369923264 3827029 ad4432546849f432c3154779662c76c8 ""
  "/usr/local/texlive/2013/texmf.cnf" 1369923207 577 cbc827f6294276973a1952e86e8ad73a ""
  "23017.png" 1408048637 60103 3affdfcbdc1ed802d0755bfc7e5dead8 ""
  "3166.png" 1408048750 25204 c89823672dbfa2d6341f837f46274c90 ""
  "HardwareDocumentation.aux" 1408629088 1287 ca5777b0cf5069e68de77f2f67d72d01 ""
  "HardwareDocumentation.out" 1408629088 290 d12ddb2111e31b375a1202a85f2caccb ""
  "HardwareDocumentation.tex" 1408629070 11320 20f54df53c9e6108ac5821977112b09f ""
  "HardwareDocumentation.toc" 1408629088 410 d2f954996a93ff1de292bb8c6418e066 ""
  "i2cdetect.png" 1408049641 19069 89e3f5622a7283c77af4f8949bc8ac92 ""
  "pi.png" 1408048309 119251 e76e6843591dbc58a60ef65513424bdf ""
  "pipinout.jpg" 1408048520 153312 953046f96aeb9ab53eb91abff2b24bc8 ""
  "schematic.png" 1408049489 28352 918e5e9610398ec5c5738e3c7dedf002 ""
  (generated)
  "HardwareDocumentation.out"
  "HardwareDocumentation.log"
  "HardwareDocumentation.pdf"
  "HardwareDocumentation.toc"
  "HardwareDocumentation.aux"
