\relax 
\providecommand\hyper@newdestlabel[2]{}
\providecommand\HyperFirstAtBeginDocument{\AtBeginDocument}
\HyperFirstAtBeginDocument{\ifx\hyper@anchor\@undefined
\global\let\oldcontentsline\contentsline
\gdef\contentsline#1#2#3#4{\oldcontentsline{#1}{#2}{#3}}
\global\let\oldnewlabel\newlabel
\gdef\newlabel#1#2{\newlabelxx{#1}#2}
\gdef\newlabelxx#1#2#3#4#5#6{\oldnewlabel{#1}{{#2}{#3}}}
\AtEndDocument{\ifx\hyper@anchor\@undefined
\let\contentsline\oldcontentsline
\let\newlabel\oldnewlabel
\fi}
\fi}
\global\let\hyper@last\relax 
\gdef\HyperFirstAtBeginDocument#1{#1}
\providecommand\HyField@AuxAddToFields[1]{}
\providecommand\HyField@AuxAddToCoFields[2]{}
\@writefile{toc}{\contentsline {section}{\numberline {1}Components}{2}{section.1}}
\@writefile{toc}{\contentsline {section}{\numberline {2}Failsafes}{4}{section.2}}
\@writefile{toc}{\contentsline {section}{\numberline {3}Operation}{4}{section.3}}
\newlabel{sec:operation}{{3}{4}{Operation}{section.3}{}}
\@writefile{toc}{\contentsline {section}{\numberline {4}Future Work}{6}{section.4}}
\@writefile{toc}{\contentsline {section}{\numberline {5}Example Pin Manipulation Program}{6}{section.5}}
\@writefile{toc}{\contentsline {section}{\numberline {6}Questions}{8}{section.6}}
\newlabel{sec:ex}{{6}{8}{Questions}{section.6}{}}
